\relax 
\catcode `:\active 
\catcode `;\active 
\catcode `!\active 
\catcode `?\active 
\select@language{french}
\@writefile{toc}{\select@language{french}}
\@writefile{lof}{\select@language{french}}
\@writefile{lot}{\select@language{french}}
\@writefile{toc}{\contentsline {section}{\numberline {1}Tests sur les modules de base et modules math\IeC {\'e}matiques}{1}}
\@writefile{toc}{\contentsline {subsection}{\numberline {1.1}Point}{1}}
\@writefile{toc}{\contentsline {subsection}{\numberline {1.2}Triangle}{1}}
\@writefile{toc}{\contentsline {subsection}{\numberline {1.3}PointSet}{1}}
\@writefile{toc}{\contentsline {subsection}{\numberline {1.4}TriangleSet}{1}}
\@writefile{toc}{\contentsline {subsection}{\numberline {1.5}Edge}{1}}
\@writefile{toc}{\contentsline {subsection}{\numberline {1.6}EdgeSet}{1}}
\@writefile{toc}{\contentsline {subsection}{\numberline {1.7}Det}{1}}
\@writefile{toc}{\contentsline {subsection}{\numberline {1.8}Circle}{1}}
\@writefile{toc}{\contentsline {section}{\numberline {2}Tests sur les modules graphiques}{1}}
\@writefile{toc}{\contentsline {subsection}{\numberline {2.1}GUI}{2}}
\@writefile{toc}{\contentsline {subsection}{\numberline {2.2}Draw}{2}}
\@writefile{toc}{\contentsline {section}{\numberline {3}Tests sur l'alorithme de Triangulation}{2}}
\@writefile{toc}{\contentsline {subsection}{\numberline {3.1}Border}{2}}
\@writefile{toc}{\contentsline {subsection}{\numberline {3.2}Triangulation}{2}}
