PWD /home/dylan/Prog1/PROG1_Project2/Demo 1 - Menu
INPUT /etc/texmf/web2c/texmf.cnf
INPUT /usr/share/texmf/web2c/texmf.cnf
INPUT /usr/share/texlive/texmf-dist/web2c/texmf.cnf
INPUT /var/lib/texmf/web2c/pdftex/pdflatex.fmt
INPUT Demo1.tex
OUTPUT Demo1.log
INPUT /usr/share/texlive/texmf-dist/tex/latex/base/article.cls
INPUT /usr/share/texlive/texmf-dist/tex/latex/base/article.cls
INPUT /usr/share/texlive/texmf-dist/tex/latex/base/size11.clo
INPUT /usr/share/texlive/texmf-dist/tex/latex/base/size11.clo
INPUT /usr/share/texlive/texmf-dist/fonts/map/fontname/texfonts.map
INPUT /usr/share/texlive/texmf-dist/fonts/tfm/public/cm/cmr10.tfm
INPUT /usr/share/texlive/texmf-dist/tex/latex/preprint/fullpage.sty
INPUT /usr/share/texlive/texmf-dist/tex/latex/preprint/fullpage.sty
INPUT /usr/share/texlive/texmf-dist/tex/generic/babel/babel.sty
INPUT /usr/share/texlive/texmf-dist/tex/generic/babel/babel.sty
INPUT /usr/share/texlive/texmf-dist/tex/generic/babel-french/frenchb.ldf
INPUT /usr/share/texlive/texmf-dist/tex/generic/babel-french/frenchb.ldf
INPUT /usr/share/texlive/texmf-dist/tex/generic/babel/babel.def
INPUT /usr/share/texlive/texmf-dist/tex/latex/carlisle/scalefnt.sty
INPUT /usr/share/texlive/texmf-dist/tex/latex/carlisle/scalefnt.sty
INPUT /usr/share/texlive/texmf-dist/tex/latex/graphics/keyval.sty
INPUT /usr/share/texlive/texmf-dist/tex/latex/graphics/keyval.sty
INPUT /usr/share/texlive/texmf-dist/tex/latex/base/inputenc.sty
INPUT /usr/share/texlive/texmf-dist/tex/latex/base/inputenc.sty
INPUT /usr/share/texlive/texmf-dist/tex/latex/base/utf8.def
INPUT /usr/share/texlive/texmf-dist/tex/latex/base/utf8.def
INPUT /usr/share/texlive/texmf-dist/tex/latex/base/t1enc.dfu
INPUT /usr/share/texlive/texmf-dist/tex/latex/base/t1enc.dfu
INPUT /usr/share/texlive/texmf-dist/tex/latex/base/ot1enc.dfu
INPUT /usr/share/texlive/texmf-dist/tex/latex/base/ot1enc.dfu
INPUT /usr/share/texlive/texmf-dist/tex/latex/base/omsenc.dfu
INPUT /usr/share/texlive/texmf-dist/tex/latex/base/omsenc.dfu
INPUT /usr/share/texlive/texmf-dist/tex/latex/base/fontenc.sty
INPUT /usr/share/texlive/texmf-dist/tex/latex/base/fontenc.sty
INPUT /usr/share/texlive/texmf-dist/tex/latex/base/t1enc.def
INPUT /usr/share/texlive/texmf-dist/tex/latex/base/t1enc.def
INPUT /usr/share/texlive/texmf-dist/fonts/tfm/jknappen/ec/ecrm1095.tfm
INPUT /usr/share/texlive/texmf-dist/tex/latex/newpx/newpxtext.sty
INPUT /usr/share/texlive/texmf-dist/tex/latex/newpx/newpxtext.sty
INPUT /usr/share/texlive/texmf-dist/tex/latex/fontaxes/fontaxes.sty
INPUT /usr/share/texlive/texmf-dist/tex/latex/fontaxes/fontaxes.sty
INPUT /usr/share/texlive/texmf-dist/tex/latex/xkeyval/xkeyval.sty
INPUT /usr/share/texlive/texmf-dist/tex/latex/xkeyval/xkeyval.sty
INPUT /usr/share/texlive/texmf-dist/tex/generic/xkeyval/xkeyval.tex
INPUT /usr/share/texlive/texmf-dist/tex/generic/xkeyval/xkvutils.tex
INPUT /usr/share/texlive/texmf-dist/tex/latex/etoolbox/etoolbox.sty
INPUT /usr/share/texlive/texmf-dist/tex/latex/etoolbox/etoolbox.sty
INPUT /usr/share/texlive/texmf-dist/tex/latex/base/fontenc.sty
INPUT /usr/share/texlive/texmf-dist/tex/latex/base/fontenc.sty
INPUT /usr/share/texlive/texmf-dist/tex/latex/base/t1enc.def
INPUT /usr/share/texlive/texmf-dist/tex/latex/base/t1enc.def
INPUT /usr/share/texlive/texmf-dist/tex/latex/base/textcomp.sty
INPUT /usr/share/texlive/texmf-dist/tex/latex/base/textcomp.sty
INPUT /usr/share/texlive/texmf-dist/tex/latex/base/ts1enc.def
INPUT /usr/share/texlive/texmf-dist/tex/latex/base/ts1enc.def
INPUT /usr/share/texlive/texmf-dist/tex/latex/base/ts1enc.dfu
INPUT /usr/share/texlive/texmf-dist/tex/latex/base/ts1enc.dfu
INPUT /usr/share/texlive/texmf-dist/tex/latex/newpx/t1zpltlf.fd
INPUT /usr/share/texlive/texmf-dist/tex/latex/newpx/t1zpltlf.fd
INPUT /usr/share/texlive/texmf-dist/fonts/tfm/public/newpx/zpl-Regular-tlf-t1.tfm
INPUT /usr/share/texlive/texmf-dist/tex/latex/newpx/newpxmath.sty
INPUT /usr/share/texlive/texmf-dist/tex/latex/newpx/newpxmath.sty
INPUT /usr/share/texlive/texmf-dist/tex/latex/amsmath/amsmath.sty
INPUT /usr/share/texlive/texmf-dist/tex/latex/amsmath/amsmath.sty
INPUT /usr/share/texlive/texmf-dist/tex/latex/amsmath/amstext.sty
INPUT /usr/share/texlive/texmf-dist/tex/latex/amsmath/amstext.sty
INPUT /usr/share/texlive/texmf-dist/tex/latex/amsmath/amsgen.sty
INPUT /usr/share/texlive/texmf-dist/tex/latex/amsmath/amsgen.sty
INPUT /usr/share/texlive/texmf-dist/tex/latex/amsmath/amsbsy.sty
INPUT /usr/share/texlive/texmf-dist/tex/latex/amsmath/amsbsy.sty
INPUT /usr/share/texlive/texmf-dist/tex/latex/amsmath/amsopn.sty
INPUT /usr/share/texlive/texmf-dist/tex/latex/amsmath/amsopn.sty
INPUT /usr/share/texlive/texmf-dist/tex/generic/kastrup/binhex.tex
INPUT /usr/share/texlive/texmf-dist/tex/generic/kastrup/binhex.tex
INPUT /usr/share/texlive/texmf-dist/tex/latex/url/url.sty
INPUT /usr/share/texlive/texmf-dist/tex/latex/url/url.sty
INPUT /usr/share/texlive/texmf-dist/tex/latex/graphics/graphicx.sty
INPUT /usr/share/texlive/texmf-dist/tex/latex/graphics/graphicx.sty
INPUT /usr/share/texlive/texmf-dist/tex/latex/graphics/graphics.sty
INPUT /usr/share/texlive/texmf-dist/tex/latex/graphics/graphics.sty
INPUT /usr/share/texlive/texmf-dist/tex/latex/graphics/trig.sty
INPUT /usr/share/texlive/texmf-dist/tex/latex/graphics/trig.sty
INPUT /usr/share/texlive/texmf-dist/tex/latex/latexconfig/graphics.cfg
INPUT /usr/share/texlive/texmf-dist/tex/latex/latexconfig/graphics.cfg
INPUT /usr/share/texlive/texmf-dist/tex/latex/pdftex-def/pdftex.def
INPUT /usr/share/texlive/texmf-dist/tex/latex/pdftex-def/pdftex.def
INPUT /usr/share/texlive/texmf-dist/tex/generic/oberdiek/infwarerr.sty
INPUT /usr/share/texlive/texmf-dist/tex/generic/oberdiek/infwarerr.sty
INPUT /usr/share/texlive/texmf-dist/tex/generic/oberdiek/ltxcmds.sty
INPUT /usr/share/texlive/texmf-dist/tex/generic/oberdiek/ltxcmds.sty
INPUT Demo1.aux
INPUT Demo1.aux
OUTPUT Demo1.aux
INPUT /usr/share/texlive/texmf-dist/tex/latex/newpx/omlnpxmi.fd
INPUT /usr/share/texlive/texmf-dist/tex/latex/newpx/omlnpxmi.fd
INPUT /usr/share/texlive/texmf-dist/tex/latex/newpx/omsnpxsy.fd
INPUT /usr/share/texlive/texmf-dist/tex/latex/newpx/omsnpxsy.fd
INPUT /usr/share/texlive/texmf-dist/tex/latex/newpx/unpxexa.fd
INPUT /usr/share/texlive/texmf-dist/tex/latex/newpx/unpxexa.fd
INPUT /usr/share/texlive/texmf-dist/tex/latex/base/ts1cmr.fd
INPUT /usr/share/texlive/texmf-dist/tex/latex/base/ts1cmr.fd
INPUT /usr/share/texlive/texmf-dist/tex/context/base/supp-pdf.mkii
INPUT /usr/share/texlive/texmf-dist/tex/context/base/supp-pdf.mkii
INPUT /usr/share/texlive/texmf-dist/tex/generic/oberdiek/pdftexcmds.sty
INPUT /usr/share/texlive/texmf-dist/tex/generic/oberdiek/pdftexcmds.sty
INPUT /usr/share/texlive/texmf-dist/tex/generic/oberdiek/ifluatex.sty
INPUT /usr/share/texlive/texmf-dist/tex/generic/oberdiek/ifluatex.sty
INPUT /usr/share/texlive/texmf-dist/tex/generic/oberdiek/ifpdf.sty
INPUT /usr/share/texlive/texmf-dist/tex/generic/oberdiek/ifpdf.sty
INPUT /usr/share/texlive/texmf-dist/tex/latex/oberdiek/epstopdf-base.sty
INPUT /usr/share/texlive/texmf-dist/tex/latex/oberdiek/epstopdf-base.sty
INPUT /usr/share/texlive/texmf-dist/tex/latex/oberdiek/grfext.sty
INPUT /usr/share/texlive/texmf-dist/tex/latex/oberdiek/grfext.sty
INPUT /usr/share/texlive/texmf-dist/tex/generic/oberdiek/kvdefinekeys.sty
INPUT /usr/share/texlive/texmf-dist/tex/generic/oberdiek/kvdefinekeys.sty
INPUT /usr/share/texlive/texmf-dist/tex/latex/oberdiek/kvoptions.sty
INPUT /usr/share/texlive/texmf-dist/tex/latex/oberdiek/kvoptions.sty
INPUT /usr/share/texlive/texmf-dist/tex/generic/oberdiek/kvsetkeys.sty
INPUT /usr/share/texlive/texmf-dist/tex/generic/oberdiek/kvsetkeys.sty
INPUT /usr/share/texlive/texmf-dist/tex/generic/oberdiek/etexcmds.sty
INPUT /usr/share/texlive/texmf-dist/tex/generic/oberdiek/etexcmds.sty
INPUT /usr/share/texlive/texmf-dist/tex/latex/latexconfig/epstopdf-sys.cfg
INPUT /usr/share/texlive/texmf-dist/tex/latex/latexconfig/epstopdf-sys.cfg
INPUT /usr/share/texlive/texmf-dist/fonts/tfm/public/newpx/zpl-Regular-tlf-t1.tfm
INPUT /usr/share/texlive/texmf-dist/fonts/tfm/public/newpx/zpl-Regular-tlf-t1.tfm
INPUT /usr/share/texlive/texmf-dist/tex/latex/newpx/ot1zpltlf.fd
INPUT /usr/share/texlive/texmf-dist/tex/latex/newpx/ot1zpltlf.fd
INPUT /usr/share/texlive/texmf-dist/fonts/tfm/public/newpx/zpl-Regular-tlf-ot1.tfm
INPUT /usr/share/texlive/texmf-dist/fonts/tfm/public/newpx/zpl-Regular-tlf-ot1.tfm
INPUT /usr/share/texlive/texmf-dist/fonts/tfm/public/newpx/zpl-Regular-tlf-ot1.tfm
INPUT /usr/share/texlive/texmf-dist/fonts/tfm/public/newpx/zplmi.tfm
INPUT /usr/share/texlive/texmf-dist/fonts/tfm/public/newpx/zplmi.tfm
INPUT /usr/share/texlive/texmf-dist/fonts/tfm/public/newpx/zplmi.tfm
INPUT /usr/share/texlive/texmf-dist/fonts/tfm/public/newpx/zplsy.tfm
INPUT /usr/share/texlive/texmf-dist/fonts/tfm/public/newpx/zplsy.tfm
INPUT /usr/share/texlive/texmf-dist/fonts/tfm/public/newpx/zplsy.tfm
INPUT /usr/share/texlive/texmf-dist/fonts/tfm/public/newpx/zplexx.tfm
INPUT /usr/share/texlive/texmf-dist/fonts/tfm/public/newpx/zplexx.tfm
INPUT /usr/share/texlive/texmf-dist/fonts/tfm/public/newpx/zplexx.tfm
INPUT /usr/share/texlive/texmf-dist/tex/latex/newpx/unpxmia.fd
INPUT /usr/share/texlive/texmf-dist/tex/latex/newpx/unpxmia.fd
INPUT /usr/share/texlive/texmf-dist/fonts/tfm/public/newpx/zplmia.tfm
INPUT /usr/share/texlive/texmf-dist/fonts/tfm/public/newpx/zplmia.tfm
INPUT /usr/share/texlive/texmf-dist/fonts/tfm/public/newpx/zplmia.tfm
INPUT /usr/share/texlive/texmf-dist/tex/latex/newpx/unpxsym.fd
INPUT /usr/share/texlive/texmf-dist/tex/latex/newpx/unpxsym.fd
INPUT /usr/share/texlive/texmf-dist/fonts/tfm/public/newpx/zplsym.tfm
INPUT /usr/share/texlive/texmf-dist/fonts/tfm/public/newpx/zplsym.tfm
INPUT /usr/share/texlive/texmf-dist/fonts/tfm/public/newpx/zplsym.tfm
INPUT /usr/share/texlive/texmf-dist/tex/latex/newpx/unpxsyc.fd
INPUT /usr/share/texlive/texmf-dist/tex/latex/newpx/unpxsyc.fd
INPUT /usr/share/texlive/texmf-dist/fonts/tfm/public/newpx/zplsyc.tfm
INPUT /usr/share/texlive/texmf-dist/fonts/tfm/public/newpx/zplsyc.tfm
INPUT /usr/share/texlive/texmf-dist/fonts/tfm/public/newpx/zplsyc.tfm
INPUT /usr/share/texlive/texmf-dist/fonts/tfm/public/newpx/zplexa.tfm
INPUT /usr/share/texlive/texmf-dist/fonts/tfm/public/newpx/zplexa.tfm
INPUT /usr/share/texlive/texmf-dist/fonts/tfm/public/newpx/zplexa.tfm
INPUT /usr/share/texlive/texmf-dist/fonts/tfm/public/newpx/zpl-Regular-tlf-t1.tfm
INPUT /usr/share/texlive/texmf-dist/fonts/tfm/public/newpx/zpl-Bold-tlf-t1.tfm
INPUT /usr/share/texlive/texmf-dist/fonts/tfm/public/newpx/zpl-Bold-tlf-t1.tfm
OUTPUT Demo1.pdf
INPUT /var/lib/texmf/fonts/map/pdftex/updmap/pdftex.map
INPUT Demo1.aux
INPUT /usr/share/texlive/texmf-dist/fonts/enc/dvips/newtx/ntx-ec-tlf.enc
INPUT /usr/share/texlive/texmf-dist/fonts/type1/public/newpx/zplb.pfb
INPUT /usr/share/texlive/texmf-dist/fonts/type1/public/newpx/zplr.pfb
